R basics for Research - 3 Data Wrangling with Tidyverse
…
# A tibble: 4 × 7
  plantype     Female Nonwhite   Age Education `Family Income` `Number enrolled`
  <fct>         <dbl>    <dbl> <dbl>     <dbl>           <dbl>             <int>
1 Catastrophic  0.560    0.172  32.4      12.1          31603.               759
2 Deductible    0.537    0.153  32.9      11.9          29499.               881
3 Coinsurance   0.535    0.145  33.3      12.0          32573.              1022
4 Free          0.522    0.144  32.8      11.8          30627.              1295

The function arrange() allows you arrange values within a variable in ascending or descending order. For instance, if you want to arrange the individuals in the rand_sample by income:

sub_data%>%arrange(income1cpi)

# A tibble: 3,957 × 6
   plantype     female blackhisp   age educper income1cpi
   <fct>         <dbl>     <dbl> <dbl>   <dbl>      <dbl>
 1 Catastrophic      1         0    30      11          0
 2 Coinsurance       0         0    53       3          0
 3 Coinsurance       1         0    19      12          0
 4 Free              0         0    36      12          0
 5 Catastrophic      1         0    42      16          0
 6 Coinsurance       1         1    25      11          0
 7 Coinsurance       0         1    35      12          0
 8 Coinsurance       1         0    22      12          0
 9 Free              1         0    34      12          0
10 Free              1         0    50      11          0
# … with 3,947 more rows

If you want to arrange by descending order:

sub_data%>%arrange(desc(income1cpi))

# A tibble: 3,957 × 6
   plantype     female blackhisp   age educper income1cpi
   <fct>         <dbl>     <dbl> <dbl>   <dbl>      <dbl>
 1 Catastrophic      0        NA    21      15     89132.
 2 Catastrophic      1         0    20      13     89132.
 3 Catastrophic      0        NA    19      13     89132.
 4 Catastrophic      0         0    51      16     89132.
 5 Free              1         0    36      17     79757.
 6 Free              0        NA    14      NA     79757.
 7 Free              0         0    42      17     79757.
 8 Catastrophic      1         0    31      17     78775.
 9 Coinsurance       0         0    40      16     77230.
10 Coinsurance       1         0    40      14     77230.
# … with 3,947 more rows
…
Selecting by income1cpi

# A tibble: 4 × 1
  income1cpi
       <dbl>
1     89132.
2     89132.
3     89132.
4     89132.

sub_data%>%select(income1cpi)%>%top_n(-10)

Selecting by income1cpi

# A tibble: 33 × 1
   income1cpi
        <dbl>
 1          0
 2          0
 3          0
 4          0
 5          0
 6          0
 7          0
 8          0
 9          0
10          0
# … with 23 more rows
…
